Curate by trait-trial
…
Previous step

Prepare a training dataset: Download data from DB, “Clean” and format DB data

Nest by trial

Start with cleaned data from previous step.

rm(list=ls())
library(tidyverse); library(magrittr);
dbdata<-readRDS(here::here("data","NRCRI_CleanedTrialData_2020April21.rds"))
dbdata

# A tibble: 32,478 x 37
   studyYear programName locationName studyName studyDesign plotWidth plotLength
       <int> <chr>       <chr>        <chr>     <chr>           <dbl>      <dbl>
 1      2012 NRCRI       Umudike      12CET500… Alpha               1          5
 2      2012 NRCRI       Umudike      12CET500… Alpha               1          5
 3      2012 NRCRI       Umudike      12CET500… Alpha               1          5
 4      2012 NRCRI       Umudike      12CET500… Alpha               1          5
 5      2012 NRCRI       Umudike      12CET500… Alpha               1          5
 6      2012 NRCRI       Umudike      12CET500… Alpha               1          5
 7      2012 NRCRI       Umudike      12CET500… Alpha               1          5
 8      2012 NRCRI       Umudike      12CET500… Alpha               1          5
 9      2012 NRCRI       Umudike      12CET500… Alpha               1          5
10      2012 NRCRI       Umudike      12CET500… Alpha               1          5
# … with 32,468 more rows, and 30 more variables: fieldSize <dbl>,
#   plantingDate <chr>, harvestDate <chr>, germplasmName <chr>,
#   replicate <int>, blockNumber <int>, plotNumber <int>, rowNumber <lgl>,
#   colNumber <int>, entryType <chr>, TrialType <chr>, CGM <lgl>, CGMS1 <dbl>,
#   CGMS2 <dbl>, DM <dbl>, PLTHT <dbl>, BRNHT1 <dbl>, NOHAV <dbl>, HI <dbl>,
#   PlotSpacing <dbl>, MaxNOHAV <dbl>, logFYLD <dbl>, logTOPYLD <dbl>,
#   logRTNO <dbl>, PropNOHAV <dbl>, MCMDS <dbl>, OrigKeyFile <chr>,
#   OriginOfSample <chr>, FullSampleName <chr>, GID <chr>
…
Detect designs

dbdata<-detectExptDesigns(dbdata)
dbdata

# A tibble: 122 x 19
   studyYear programName locationName studyName TrialType TrialData  Nobs
       <int> <chr>       <chr>        <chr>     <chr>     <list>    <dbl>
 1      2012 NRCRI       Umudike      12CET500… TP1       <tibble …  1500
 2      2013 NRCRI       Umudike      13CET489… TP2       <tibble …  1500
 3      2013 NRCRI       Otobi        13CET518… TP1       <tibble …  1554
 4      2013 NRCRI       Umudike      13CET518… TP1       <tibble …  1554
 5      2013 NRCRI       Kano         13TP1CET… TP1       <tibble …  1554
 6      2015 NRCRI       Kano         14CETtp2… TP2       <tibble …   250
 7      2014 NRCRI       Umudike      14CETtp2… TP2       <tibble …   246
 8      2014 NRCRI       Umudike      15CET1tp… TP1       <tibble …   672
 9      2015 NRCRI       Umudike      15CETtp1… TP1       <tibble …   470
10      2015 NRCRI       Umudike      15CETtp2… TP2       <tibble …   249
# … with 112 more rows, and 12 more variables: MaxNOHAV <dbl>, Nrep <dbl>,
#   Nblock <dbl>, Nclone <dbl>, medObsPerClone <dbl>, medObsPerRep <dbl>,
#   CompleteBlocks <lgl>, medBlocksPerClone <dbl>, repsEqualBlocks <lgl>,
#   NrepEqualNblock <lgl>, medObsPerBlockInRep <dbl>, IncompleteBlocks <lgl>

dbdata %>% 
    count(programName,CompleteBlocks,IncompleteBlocks) # %>% spread(IncompleteBlocks,n)

# A tibble: 4 x 4
  programName CompleteBlocks IncompleteBlocks     n
  <chr>       <lgl>          <lgl>            <int>
1 NRCRI       FALSE          FALSE                3
2 NRCRI       FALSE          TRUE                15
3 NRCRI       TRUE           FALSE               78
4 NRCRI       TRUE           TRUE                26

dbdata$TrialData[[1]]

# A tibble: 1,500 x 36
   studyDesign plotWidth plotLength fieldSize plantingDate harvestDate
   <chr>           <dbl>      <dbl>     <dbl> <chr>        <chr>      
 1 Alpha               1          5       1.5 2012-Septem… 2013-Septe…
 2 Alpha               1          5       1.5 2012-Septem… 2013-Septe…
 3 Alpha               1          5       1.5 2012-Septem… 2013-Septe…
 4 Alpha               1          5       1.5 2012-Septem… 2013-Septe…
 5 Alpha               1          5       1.5 2012-Septem… 2013-Septe…
 6 Alpha               1          5       1.5 2012-Septem… 2013-Septe…
 7 Alpha               1          5       1.5 2012-Septem… 2013-Septe…
 8 Alpha               1          5       1.5 2012-Septem… 2013-Septe…
 9 Alpha               1          5       1.5 2012-Septem… 2013-Septe…
10 Alpha               1          5       1.5 2012-Septem… 2013-Septe…
# … with 1,490 more rows, and 30 more variables: germplasmName <chr>,
#   replicate <int>, blockNumber <int>, plotNumber <int>, rowNumber <lgl>,
#   colNumber <int>, entryType <chr>, CGM <lgl>, CGMS1 <dbl>, CGMS2 <dbl>,
#   DM <dbl>, PLTHT <dbl>, BRNHT1 <dbl>, NOHAV <dbl>, HI <dbl>,
#   PlotSpacing <dbl>, MaxNOHAV <dbl>, logFYLD <dbl>, logTOPYLD <dbl>,
#   logRTNO <dbl>, PropNOHAV <dbl>, MCMDS <dbl>, OrigKeyFile <chr>,
#   OriginOfSample <chr>, FullSampleName <chr>, GID <chr>, yearInLoc <chr>,
#   trialInLocYr <chr>, repInTrial <chr>, blockInRep <chr>
…
# A tibble: 6 x 7
  studyYear programName locationName studyName  TrialType Trait TraitByTrialData
      <int> <chr>       <chr>        <chr>      <chr>     <chr> <list>          
1      2012 NRCRI       Umudike      12CET500T… TP1       CGM   <tibble [1,500 …
2      2012 NRCRI       Umudike      12CET500T… TP1       CGMS1 <tibble [1,500 …
3      2012 NRCRI       Umudike      12CET500T… TP1       CGMS2 <tibble [1,500 …
4      2012 NRCRI       Umudike      12CET500T… TP1       MCMDS <tibble [1,500 …
5      2012 NRCRI       Umudike      12CET500T… TP1       DM    <tibble [1,500 …
6      2012 NRCRI       Umudike      12CET500T… TP1       PLTHT <tibble [1,500 …

dbdata$TraitByTrialData[[1]]

# A tibble: 1,500 x 38
   studyDesign plotWidth plotLength fieldSize plantingDate harvestDate
   <chr>           <dbl>      <dbl>     <dbl> <chr>        <chr>      
 1 Alpha               1          5       1.5 2012-Septem… 2013-Septe…
 2 Alpha               1          5       1.5 2012-Septem… 2013-Septe…
 3 Alpha               1          5       1.5 2012-Septem… 2013-Septe…
 4 Alpha               1          5       1.5 2012-Septem… 2013-Septe…
 5 Alpha               1          5       1.5 2012-Septem… 2013-Septe…
 6 Alpha               1          5       1.5 2012-Septem… 2013-Septe…
 7 Alpha               1          5       1.5 2012-Septem… 2013-Septe…
 8 Alpha               1          5       1.5 2012-Septem… 2013-Septe…
 9 Alpha               1          5       1.5 2012-Septem… 2013-Septe…
10 Alpha               1          5       1.5 2012-Septem… 2013-Septe…
# … with 1,490 more rows, and 32 more variables: germplasmName <chr>,
#   replicate <int>, blockNumber <int>, plotNumber <int>, rowNumber <lgl>,
#   colNumber <int>, entryType <chr>, NOHAV <dbl>, PlotSpacing <dbl>,
#   MaxNOHAV <dbl>, PropNOHAV <dbl>, OrigKeyFile <chr>, OriginOfSample <chr>,
#   FullSampleName <chr>, GID <chr>, yearInLoc <chr>, trialInLocYr <chr>,
#   repInTrial <chr>, blockInRep <chr>, Nobs <dbl>, Nrep <dbl>, Nblock <dbl>,
#   Nclone <dbl>, medObsPerClone <dbl>, medObsPerRep <dbl>,
#   CompleteBlocks <lgl>, medBlocksPerClone <dbl>, repsEqualBlocks <lgl>,
#   NrepEqualNblock <lgl>, medObsPerBlockInRep <dbl>, IncompleteBlocks <lgl>,
…
Output file

saveRDS(dbdata,file=here::here("output","NRCRI_CuratedTrials_2020April27.rds"))

Plot Results

dbdata<-readRDS(file=here::here("output","NRCRI_CuratedTrials_2020April27.rds"))
dbdata

# A tibble: 1,342 x 13
   studyYear programName locationName studyName TrialType Trait       H2
       <int> <chr>       <chr>        <chr>     <chr>     <chr>    <dbl>
 1      2012 NRCRI       Umudike      12CET500… TP1       CGM   NA      
 2      2012 NRCRI       Umudike      12CET500… TP1       CGMS1  7.36e-7
 3      2012 NRCRI       Umudike      12CET500… TP1       CGMS2  3.26e-2
 4      2012 NRCRI       Umudike      12CET500… TP1       MCMDS  1.44e-3
 5      2012 NRCRI       Umudike      12CET500… TP1       DM    NA      
 6      2012 NRCRI       Umudike      12CET500… TP1       PLTHT  2.86e-4
 7      2012 NRCRI       Umudike      12CET500… TP1       BRNH…  3.75e-2
 8      2012 NRCRI       Umudike      12CET500… TP1       HI     0.     
 9      2012 NRCRI       Umudike      12CET500… TP1       logF…  9.55e-3
10      2012 NRCRI       Umudike      12CET500… TP1       logT…  0.     
# … with 1,332 more rows, and 6 more variables: VarComps <list>, BLUPs <list>,
#   Model <chr>, Noutliers <int>, Outliers <list>, propMiss <dbl>
…
