Review and QC of NRCRI training data
…
dbdata %>% 
  distinct(GID,germplasmName,FullSampleName) %>% 
  semi_join(tibble(GID=rownames_snps)) %>% 
  filter(grepl("c2",GID,ignore.case = F)) # no C2 clones either

# A tibble: 0 x 3
# … with 3 variables: germplasmName <chr>, FullSampleName <chr>, GID <chr>

dbdata %>% 
  distinct(GID,germplasmName,FullSampleName) %>% 
  anti_join(tibble(GID=rownames_snps)) %>% 
  filter(grepl("c1|c2",GID,ignore.case = T)) # definitely there are both C1 and C2 phenotypes

# A tibble: 2,440 x 3
   germplasmName   FullSampleName GID            
   <chr>           <chr>          <chr>          
 1 NR16F100C1bP001 <NA>           NR16F100C1bP001
 2 NR16F100C1bP002 <NA>           NR16F100C1bP002
 3 NR16F104C1bP001 <NA>           NR16F104C1bP001
 4 NR16F105C1bP001 <NA>           NR16F105C1bP001
 5 NR16F105C1bP002 <NA>           NR16F105C1bP002
 6 NR16F106C1bP001 <NA>           NR16F106C1bP001
 7 NR16F107C1bP002 <NA>           NR16F107C1bP002
 8 NR16F107C1bP004 <NA>           NR16F107C1bP004
 9 NR16F108C1bP001 <NA>           NR16F108C1bP001
10 NR16F109C1bP001 <NA>           NR16F109C1bP001
# … with 2,430 more rows
…
  bind_rows(dbdata %>% 
              distinct(germplasmName,FullSampleName) %>% 
              anti_join(tibble(FullSampleName=rownames_snps)) %>% 
              filter(grepl("c2",germplasmName,ignore.case = T)) %>% 
              select(-FullSampleName) %>% 
              left_join(tibble(FullSampleName=rownames_snps) %>% 
                          filter(grepl("c2",FullSampleName,ignore.case = T),
                                 grepl("\\.\\.\\.",FullSampleName)) %>% 
                          separate(FullSampleName,c("dartID","germplasmName"),"\\.\\.\\.",extra = 'merge',remove = F) %>% 
                          select(-dartID))) %>% 
  distinct
germ2snps %>% 
  count(germplasmName) %>% arrange(desc(n))

# A tibble: 3,780 x 2
   germplasmName       n
   <chr>           <int>
 1 NR16C1bF185P001     4
 2 NR16F185C1bP001     4
 3 NR16C1bF170P019     3
 4 NR16C1bF170P020     3
 5 NR16C1bF180P002     3
 6 NR16F180C1bP002     3
 7 NR16F182C1bP001     3
 8 NR16C1bF171P002     2
 9 NR16C1bF179P001     2
10 NR16C1bF179P002     2
# … with 3,770 more rows

germ2snps %>% 
  count(FullSampleName) %>% arrange(desc(n))

# A tibble: 3,304 x 2
   FullSampleName                     n
   <chr>                          <int>
 1 <NA>                             357
 2 F116C1bP006:CA7RRANXX:3:499841     3
 3 F123C1bP002:CA7RRANXX:4:499895     3
 4 F123C1bP006:CA7RRANXX:4:499899     3
 5 F12C1bP018:CABV7ANXX:5:503932      3
 6 F135C1bP001:CABJYANXX:5:505238     3
 7 F136C1bP002:CABJYANXX:5:505240     3
 8 F140C1bP001:CABJYANXX:5:505270     3
 9 F152C1bP010:CA7RRANXX:5:499961     3
10 F152C1bP014:CA7RRANXX:5:499965     3
# … with 3,294 more rows
…
